Get Financial data in korea with tidyquant package â€¢ tqk
…
tidyquantê°€ í™œìš©í•˜ëŠ” yahooë‚˜ google ì£¼ì‹ì€ í•œêµ­ ì£¼ì‹ ë°ì´í„°ê°€ ìœ ëª…í•œ ê²ƒë§Œ ìˆì–´ ì£¼ì‹ ë¶„ì„ì„ í•˜ëŠ”ë° ë¬¸ì œê°€ ìˆìŠµë‹ˆë‹¤. ê·¸ë˜ì„œ ìš°ë¦¬ë‚˜ë¼ì—ì„œ ëŒ€í‘œì ìœ¼ë¡œ ì£¼ì‹ ë°ì´í„°ë¥¼ ì œê³µí•˜ëŠ” p, n, d ì‚¬ë“±ì˜ í˜ì´ì§€ë¥¼ ê°€ì ¸ì˜¤ëŠ” í•¨ìˆ˜ë¥¼ ì‘ì„±í•˜ì—¬ ë°°í¬í•©ë‹ˆë‹¤.(í˜„ì¬ pì‚¬ë§Œ ì ìš©ì¤‘)

ê¸°ëŠ¥

code_get : ìš°ë¦¬ë‚˜ë¼ ì£¼ì‹ì‹œì¥ì˜ codeì™€ ëª…ì¹­, ì†Œì† ì‹œì¥ ì •ë³´ë¥¼ ê°€ì ¸ì˜µë‹ˆë‹¤.

tqk_get : codeì™€ ë‚ ì§œë¥¼ ê¸°ë°˜ìœ¼ë¡œ ì£¼ì‹ ì •ë³´ë¥¼ ê°€ì ¸ì˜µë‹ˆë‹¤. tidyquant ì˜ ì–‘ì‹ì´ ê¸°ë³¸ê°’ì´ê³  ê°€ì ¸ì˜¤ëŠ” ë°ì´í„° í˜•ì‹ ì „ì²´ë¥¼ ì‚¬ìš©í•˜ê³  ì‹¶ìœ¼ë©´ tqform=F ì„¤ì •í•˜ì‹œë©´ ë©ë‹ˆë‹¤. tqform=T ì¼ë•Œ adjustedëŠ” ì•„ì§ closeì™€ ê°™ì€ ê°’ìœ¼ë¡œ ê³„ì‚°ì‹ì„ ì—…ë°ì´íŠ¸ í•´ì•¼ í•©ë‹ˆë‹¤.

ì‚¬ìš©ë²•

library(tqk)
code <- code_get()
code

## # A tibble: 2,306 x 3
##    code   name                    category
##    <chr>  <chr>                   <chr>   
##  1 060310 3S                      KOSDAQ  
##  2 095570 AJë„¤íŠ¸ì›ìŠ¤              KOSPI   
##  3 068400 AJë Œí„°ì¹´                KOSPI   
##  4 006840 AKí™€ë”©ìŠ¤                KOSPI   
##  5 054620 APSí™€ë”©ìŠ¤               KOSDAQ  
##  6 265520 APì‹œìŠ¤í…œ                KOSDAQ  
##  7 211270 APìœ„ì„±                  KOSDAQ  
##  8 152100 ARIRANG 200             ETF     
##  9 222170 ARIRANG S&Pí•œêµ­ë°°ë‹¹ì„±ì¥ ETF     
## 10 161490 ARIRANG ê²½ê¸°ë°©ì–´ì£¼      ETF     
## # ... with 2,296 more rows

sscode <- code[grep("^ì‚¼ì„±ì „ì$", code$name),1]
sscode

## # A tibble: 1 x 1
##   code  
##   <chr> 
## 1 005930

samsung <- tqk_get(sscode, from="2018-05-01")
samsung

## # A tibble: 138 x 7
##    date          open    high     low   close   volume adjusted
##    <date>       <dbl>   <dbl>   <dbl>   <dbl>    <int>    <dbl>
##  1 2018-05-02 2650000 2650000 2650000 2650000        0    53000
##  2 2018-05-03 2650000 2650000 2650000 2650000        0    53000
##  3 2018-05-04   53000   53900   51800   51900 39565391    51900
##  4 2018-05-08   52600   53200   51900   52600 23104720    52600
##  5 2018-05-09   52600   52800   50900   50900 16128305    50900
##  6 2018-05-10   51700   51700   50600   51600 13905263    51600
##  7 2018-05-11   52000   52200   51200   51300 10314997    51300
##  8 2018-05-14   51000   51100   49900   50100 14909272    50100
##  9 2018-05-15   50200   50400   49100   49200 18709146    49200
## 10 2018-05-16   49200   50200   49150   49850 15918683    49850
## # ... with 128 more rows
…
## The following objects are masked from 'package:stats':
## 
##     filter, lag

## The following objects are masked from 'package:base':
## 
##     intersect, setdiff, setequal, union

code_get() %>% 
  filter(grepl("^ì‚¼ì„±ì „ì$", name)) %>% 
  select(code) %>% 
  tqk_get(from = "2018-05-01") -> ss
ss

## # A tibble: 138 x 7
##    date          open    high     low   close   volume adjusted
##    <date>       <dbl>   <dbl>   <dbl>   <dbl>    <int>    <dbl>
##  1 2018-05-02 2650000 2650000 2650000 2650000        0    53000
##  2 2018-05-03 2650000 2650000 2650000 2650000        0    53000
##  3 2018-05-04   53000   53900   51800   51900 39565391    51900
##  4 2018-05-08   52600   53200   51900   52600 23104720    52600
##  5 2018-05-09   52600   52800   50900   50900 16128305    50900
##  6 2018-05-10   51700   51700   50600   51600 13905263    51600
##  7 2018-05-11   52000   52200   51200   51300 10314997    51300
##  8 2018-05-14   51000   51100   49900   50100 14909272    50100
##  9 2018-05-15   50200   50400   49100   49200 18709146    49200
## 10 2018-05-16   49200   50200   49150   49850 15918683    49850
## # ... with 128 more rows
…
