…
1.  code\_get : 우리나라 주식시장의 code와 명칭, 소속 시장 정보를 가져옵니다.
2.  tqk\_get : code와 날짜를 기반으로 주식 정보를 가져옵니다. tidyquant 의 양식이 기본값이고 가져오는
    데이터 형식 전체를 사용하고 싶으면 tqform=F 설정하시면 됩니다. tqform=T 일때 adjusted는 아직
    close와 같은 값으로 계산식을 업데이트 해야 합니다.

## 사용법

``` r
library(tqk)
code<-code_get()
code
```

    ## # A tibble: 2,306 x 3
    ##    code   name                    category
    ##    <chr>  <chr>                   <chr>   
    ##  1 060310 3S                      KOSDAQ  
    ##  2 095570 AJ네트웍스              KOSPI   
    ##  3 068400 AJ렌터카                KOSPI   
    ##  4 006840 AK홀딩스                KOSPI   
    ##  5 054620 APS홀딩스               KOSDAQ  
    ##  6 265520 AP시스템                KOSDAQ  
    ##  7 211270 AP위성                  KOSDAQ  
    ##  8 152100 ARIRANG 200             ETF     
    ##  9 222170 ARIRANG S&P한국배당성장 ETF     
    ## 10 161490 ARIRANG 경기방어주      ETF     
    ## # ... with 2,296 more rows
…
``` r
samsung<-tqk_get(sscode, from="2017-01-01")
```

    ## [1] "please wait for getting data using internet."
    ## [1] "close and adjusted are same now."

``` r
samsung
```

    ## # A tibble: 471 x 7
    ##    date        open  high   low close   volume adjusted
    ##    <date>     <int> <int> <int> <int>    <dbl>    <int>
    ##  1 2017-01-02 35980 36240 35880 36100  4650600    36100
    ##  2 2017-01-03 36280 36620 36020 36480  7357650    36480
    ##  3 2017-01-04 36500 36520 36100 36160  7971750    36160
    ##  4 2017-01-05 36060 36060 35540 35560 10967450    35560
    ##  5 2017-01-06 36180 36440 36040 36200  8880950    36200
    ##  6 2017-01-09 36600 37500 36560 37220 13194900    37220
    ##  7 2017-01-10 37280 37400 37080 37240  9099800    37240
    ##  8 2017-01-11 37520 38560 37420 38280 12018150    38280
    ##  9 2017-01-12 38000 38800 37980 38800 11669150    38800
    ## 10 2017-01-12 38000 38800 37980 38800 11669150    38800
    ## # ... with 461 more rows
…
``` r
code_get() %>% 
  filter(grepl("^삼성전자$", name)) %>% 
  select(code) %>% 
  tqk_get(from = "2017-01-01") -> ss
```

    ## [1] "please wait for getting data using internet."
    ## [1] "close and adjusted are same now."

``` r
ss
```

    ## # A tibble: 471 x 7
    ##    date        open  high   low close   volume adjusted
    ##    <date>     <int> <int> <int> <int>    <dbl>    <int>
    ##  1 2017-01-02 35980 36240 35880 36100  4650600    36100
    ##  2 2017-01-03 36280 36620 36020 36480  7357650    36480
    ##  3 2017-01-04 36500 36520 36100 36160  7971750    36160
    ##  4 2017-01-05 36060 36060 35540 35560 10967450    35560
    ##  5 2017-01-06 36180 36440 36040 36200  8880950    36200
    ##  6 2017-01-09 36600 37500 36560 37220 13194900    37220
    ##  7 2017-01-10 37280 37400 37080 37240  9099800    37240
    ##  8 2017-01-11 37520 38560 37420 38280 12018150    38280
    ##  9 2017-01-12 38000 38800 37980 38800 11669150    38800
    ## 10 2017-01-12 38000 38800 37980 38800 11669150    38800
    ## # ... with 461 more rows
…
