tidyquant with tqk
…
if (!require(tidyquant)) install.packages("tidyquant", verbose = F)
library(tidyquant)
tq_get_options()

##  [1] "stock.prices"       "stock.prices.japan" "financials"        
##  [4] "key.stats"          "key.ratios"         "dividends"         
##  [7] "splits"             "economic.data"      "exchange.rates"    
## [10] "metal.prices"       "quandl"             "quandl.datatable"

이때 코스피와 코스닥을 이르는 이름이 각각 ^KS11와 ^KOSDAQ입니다. 각각 한번 가져와 보겠습니다.

tq_get("^KS11")

## # A tibble: 2,661 x 7
##          date    open    high     low   close volume adjusted
##        <date>   <dbl>   <dbl>   <dbl>   <dbl>  <dbl>    <dbl>
##  1 2007-01-02 1438.89 1439.71 1430.06 1435.26 147800  1435.26
##  2 2007-01-03 1436.42 1437.79 1409.31 1409.35 203200  1409.35
##  3 2007-01-04 1410.55 1411.12 1388.50 1397.29 241200  1397.29
##  4 2007-01-05 1398.60 1400.59 1372.36 1385.76 277200  1385.76
##  5 2007-01-08 1376.76 1384.65 1366.48 1370.81 177600  1370.81
##  6 2007-01-09 1376.71 1381.99 1367.74 1374.34 216800  1374.34
##  7 2007-01-10 1372.52 1372.52 1345.08 1355.79 225400  1355.79
##  8 2007-01-11 1357.57 1375.31 1355.63 1365.31 211800  1365.31
##  9 2007-01-12 1379.00 1389.00 1372.87 1388.37 213800  1388.37
## 10 2007-01-15 1396.87 1397.64 1385.81 1390.96 163800  1390.96
## # ... with 2,651 more rows
…
삼성전자를 가져와 볼까요.

tar<-paste0(codeData[grep("^삼성전자$",codeData$`종목명`),1],".KS")
tq_get(tar)

## # A tibble: 2,661 x 7
##          date     open     high      low  close volume adjusted
##        <date>    <dbl>    <dbl>    <dbl>  <dbl>  <dbl>    <dbl>
##  1 2007-01-02 700392.6 708300.3 695874.0 626000 352146 554146.3
##  2 2007-01-03 708300.3 709430.0 690225.7 614000 393530 543523.7
##  3 2007-01-04 690225.8 691355.4 681188.4 606000 365178 536441.9
##  4 2007-01-05 686836.7 687966.3 672151.0 595000 568008 526704.6
##  5 2007-01-08 668761.9 671021.3 654076.3 584000 661631 516967.2
##  6 2007-01-09 663113.8 671021.5 657465.5 586000 402197 518737.5
##  7 2007-01-10 657465.4 659724.7 649557.7 578000 515126 511655.8
##  8 2007-01-11 654076.4 664243.4 652946.7 583000 596787 516081.9
##  9 2007-01-12 666502.8 684577.4 660854.4 606000 806921 536441.9
## 10 2007-01-15 691355.3 694744.3 685707.0 612000 673506 541753.2
## # ... with 2,651 more rows

날짜를 지정할 수도 있습니다.

tq_get(tar, from="2016-01-01", to="2016-05-05")

## # A tibble: 84 x 7
##          date    open    high     low   close volume adjusted
##        <date>   <dbl>   <dbl>   <dbl>   <dbl>  <dbl>    <dbl>
##  1 2016-01-04 1288562 1288562 1232315 1205000 306939  1178290
##  2 2016-01-05 1229247 1245610 1212885 1208000 216002  1181224
##  3 2016-01-06 1235383 1235383 1194477 1175000 366752  1148955
##  4 2016-01-07 1192431 1209816 1177091 1163000 282388  1137221
##  5 2016-01-08 1189363 1212885 1189363 1171000 257763  1145044
##  6 2016-01-11 1182205 1192431 1171978 1152000 241277  1126465
##  7 2016-01-12 1174023 1192431 1169932 1146000 206283  1120598
##  8 2016-01-13 1179137 1185273 1174023 1148000 143316  1122554
##  9 2016-01-14 1156638 1167887 1156638 1138000 209022  1112775
## 10 2016-01-15 1165842 1178114 1149479 1132000 209464  1106908
## # ... with 74 more rows

배당금 정보는 dividends 에서 확인하시면 됩니다.

tq_get(tar, get = "dividends")

## # A tibble: 22 x 2
##          date dividends
##        <date>     <dbl>
##  1 2007-06-28       500
##  2 2007-12-27      7500
##  3 2008-06-27       500
##  4 2008-12-29      5000
##  5 2009-06-29       500
##  6 2009-12-29      7500
##  7 2010-06-29      4230
##  8 2010-12-29      5000
##  9 2011-06-29       500
## 10 2011-12-28      5000
## # ... with 12 more rows

야후 파이넨스가 데이터 소스이다 보니 모든 정보가 있다고 보기 어렵니다. 그것을 커버하기 위해서 tqk가 시작됬습니다.

종목 코드 가져오기

본래 tidyquant 패키지는 symbol(ex> 애플사는 AAPL)를 인자로 주식 데이터를 가져옵니다. 한국 주식은 각 종목별로 코드가 있으며 그것 때문에 코드와 종목명이 매치되있는 데이터를 확인할 수 있어야 합니다. tqk 패키지는 code_get()함수를 통해 진행 가능합니다.

library(tqk)
code<-code_get()
code

## # A tibble: 2,273 x 3
##      code                    name category
##     <chr>                   <chr>    <chr>
##  1 060310                      3S   KOSDAQ
##  2 095570              AJ네트웍스    KOSPI
##  3 068400                AJ렌터카    KOSPI
##  4 006840                AK홀딩스    KOSPI
##  5 054620               APS홀딩스   KOSDAQ
##  6 211270                  AP위성   KOSDAQ
##  7 152100             ARIRANG 200      ETF
##  8 222170 ARIRANG S&P한국배당성장      ETF
##  9 161490      ARIRANG 경기방어주      ETF
## 10 161500      ARIRANG 경기주도주      ETF
## # ... with 2,263 more rows

주식 데이터 가져오기

tqk_get()은 종목 코드로 데이터를 가져오도록 만들었습니다.

ss_prices  <- tqk_get(code[grep("삼성전자", code[,2]),1]
                       , from="2017-01-01")

## [1] "please wait for getting data using internet."
## [1] "close and adjusted are same now."

ss_prices

## # A tibble: 188 x 7
##          date  open  high   low close volume adjusted
##        <date> <int> <int> <int> <int>  <dbl>    <int>
##  1 2017-01-02  2820  3035  2790  3000 478672     3000
##  2 2017-01-02  2820  3035  2790  3000 478672     3000
##  3 2017-01-03  3070  3070  2900  3030 309507     3030
##  4 2017-01-04  3030  3095  2980  3090 248971     3090
##  5 2017-01-05  3090  3300  3050  3090 928979     3090
##  6 2017-01-06  3090  3095  3015  3015 202702     3015
##  7 2017-01-09  3045  3090  2995  3010 125422     3010
##  8 2017-01-10  3010  3030  2900  2930 247850     2930
##  9 2017-01-11  2970  2985  2920  2930  92280     2930
## 10 2017-01-12  2935  2970  2880  2880 160546     2880
## # ... with 178 more rows
…
