Get quantitative data from korea — tqk_get • tqk
…
from
Optional for various time series functions. A character string representing a start date in YYYY-MM-DD format.

to
Optional for various time series functions. A character string representing a end date in YYYY-MM-DD format.

    Value

a tibble

    Examples

# \donttest{
  tqk_get(x = "005930")
#> # A tibble: 7,165 × 6
#>    date        open  high   low close   volume
#>    <date>     <int> <int> <int> <int>    <int>
#>  1 2023-08-29 66900 67200 66600 66800  9103907
#>  2 2023-08-28 66800 67000 66500 66800  5824628
#>  3 2023-08-25 67100 67400 66900 67100  7032462
#>  4 2023-08-24 68300 68700 67900 68200 15044463
#>  5 2023-08-23 66700 67100 66400 67100  9549352
#>  6 2023-08-22 67200 67700 66300 66600 10500242
#>  7 2023-08-21 66600 67100 66300 66600  9720067
#>  8 2023-08-18 66000 66700 65800 66300 11745006
#>  9 2023-08-17 66300 66800 66000 66700 10778652
#> 10 2023-08-16 66700 67100 66300 67000 13174578
#> # ℹ 7,155 more rows
  tqk_get(x = "005930", from = "2018-05-01")
#> # A tibble: 1,314 × 6
#>    date        open  high   low close   volume
#>    <date>     <int> <int> <int> <int>    <int>
#>  1 2023-08-29 66900 67200 66600 66800  9103907
#>  2 2023-08-28 66800 67000 66500 66800  5824628
#>  3 2023-08-25 67100 67400 66900 67100  7032462
#>  4 2023-08-24 68300 68700 67900 68200 15044463
#>  5 2023-08-23 66700 67100 66400 67100  9549352
#>  6 2023-08-22 67200 67700 66300 66600 10500242
#>  7 2023-08-21 66600 67100 66300 66600  9720067
#>  8 2023-08-18 66000 66700 65800 66300 11745006
#>  9 2023-08-17 66300 66800 66000 66700 10778652
#> 10 2023-08-16 66700 67100 66300 67000 13174578
#> # ℹ 1,304 more rows
…
