Get Financial data in korea with tidyquant package • tqk
…
tidyquant가 활용하는 yahoo나 google 주식은 한국 주식 데이터가 유명한 것만 있어 주식 분석을 하는데 문제가 있습니다. 그래서 우리나라에서 대표적으로 주식 데이터를 제공하는 p, n, d 사등의 페이지를 가져오는 함수를 작성하여 배포합니다.(현재 p사만 적용중)

기능

code_get : 우리나라 주식시장의 code와 명칭, 소속 시장 정보를 가져옵니다.

tqk_get : code와 날짜를 기반으로 주식 정보를 가져옵니다. tidyquant 의 양식이 기본값이고 가져오는 데이터 형식 전체를 사용하고 싶으면 tqform=F 설정하시면 됩니다. tqform=T 일때 adjusted는 아직 close와 같은 값으로 계산식을 업데이트 해야 합니다.

사용법

library(tqk)
code <- code_get()
code

## # A tibble: 788 x 11
##    code  name  업종코드 업종  `상장주식수(주)` `자본금(원)` `액면가(원)`
##    <chr> <chr> <chr>    <chr> <chr>            <chr>        <chr>       
##  1 0955~ AJ네트~ 147603   산업용 ~ 46,822,295       46,822,295,~ 1,000       
##  2 0684~ AJ렌터~ 147601   운송장비~ 22,146,300       11,073,150,~ 500         
##  3 0068~ AK홀딩~ 116409   기타 금~ 13,247,561       66,237,805,~ 5,000       
##  4 0274~ BGF   116409   기타 금~ 95,369,179       95,369,179,~ 1,000       
##  5 2823~ BGF리~ 074701   종합 소~ 17,283,906       17,283,906,~ 1,000       
##  6 1389~ BNK금~ 116409   기타 금~ 325,935,246      1,629,676,2~ 5,000       
##  7 0014~ BYC   031401   봉제의복~ 624,615          4,200,000,0~ 5,000       
##  8 0010~ CJ    116409   기타 금~ 29,176,998       157,914,810~ 5,000       
##  9 0791~ CJ C~ 105901   영화, ~ 21,161,313       10,580,656,~ 500         
## 10 0001~ CJ대한~ 084903   도로 화~ 22,812,344       114,061,720~ 5,000       
## # ... with 778 more rows, and 4 more variables: 통화구분 <chr>,
## #   대표전화 <chr>, 주소 <chr>, market <chr>

sscode <- code[grep("^삼성전자$", code$name),1]
sscode

## # A tibble: 1 x 1
##   code  
##   <chr> 
## 1 005930

samsung <- tqk_get(sscode, from="2018-05-01")
samsung

## # A tibble: 206 x 7
##    date          open    high     low   close   volume adjusted
##    <date>       <dbl>   <dbl>   <dbl>   <dbl>    <int>    <dbl>
##  1 2018-05-02 2650000 2650000 2650000 2650000        0    53000
##  2 2018-05-03 2650000 2650000 2650000 2650000        0    53000
##  3 2018-05-04   53000   53900   51800   51900 39565391    51900
##  4 2018-05-08   52600   53200   51900   52600 23104720    52600
##  5 2018-05-09   52600   52800   50900   50900 16128305    50900
##  6 2018-05-10   51700   51700   50600   51600 13905263    51600
##  7 2018-05-11   52000   52200   51200   51300 10314997    51300
##  8 2018-05-14   51000   51100   49900   50100 14909272    50100
##  9 2018-05-15   50200   50400   49100   49200 18709146    49200
## 10 2018-05-16   49200   50200   49150   49850 15918683    49850
## # ... with 196 more rows
…
## The following objects are masked from 'package:stats':
## 
##     filter, lag

## The following objects are masked from 'package:base':
## 
##     intersect, setdiff, setequal, union

code_get() %>% 
  filter(grepl("^삼성전자$", name)) %>% 
  select(code) %>% 
  tqk_get(from = "2018-05-01") -> ss
ss

## # A tibble: 206 x 7
##    date          open    high     low   close   volume adjusted
##    <date>       <dbl>   <dbl>   <dbl>   <dbl>    <int>    <dbl>
##  1 2018-05-02 2650000 2650000 2650000 2650000        0    53000
##  2 2018-05-03 2650000 2650000 2650000 2650000        0    53000
##  3 2018-05-04   53000   53900   51800   51900 39565391    51900
##  4 2018-05-08   52600   53200   51900   52600 23104720    52600
##  5 2018-05-09   52600   52800   50900   50900 16128305    50900
##  6 2018-05-10   51700   51700   50600   51600 13905263    51600
##  7 2018-05-11   52000   52200   51200   51300 10314997    51300
##  8 2018-05-14   51000   51100   49900   50100 14909272    50100
##  9 2018-05-15   50200   50400   49100   49200 18709146    49200
## 10 2018-05-16   49200   50200   49150   49850 15918683    49850
## # ... with 196 more rows
…
