tidyquant with tqk • tqk
…
if (!require(tidyquant)) install.packages("tidyquant", repos = "https://cloud.r-project.org/", verbose = F)
library(tidyquant)
tq_get_options()

##  [1] "stock.prices"        "stock.prices.google" "stock.prices.japan" 
##  [4] "financials"          "key.ratios"          "dividends"          
##  [7] "splits"              "economic.data"       "exchange.rates"     
## [10] "metal.prices"        "quandl"              "quandl.datatable"   
## [13] "alphavantager"       "rblpapi"

이때 코스피와 코스닥을 이르는 이름이 각각 ^KS11와 ^KOSDAQ입니다. 각각 한번 가져와 보겠습니다.

tq_get("^KS11")

## # A tibble: 2,671 x 7
##    date        open  high   low close volume adjusted
##    <date>     <dbl> <dbl> <dbl> <dbl>  <dbl>    <dbl>
##  1 2008-01-02 1891. 1892. 1853. 1853. 246800    1853.
##  2 2008-01-03 1834. 1858. 1822. 1853. 252800    1853.
##  3 2008-01-04 1854. 1870. 1824. 1864. 298600    1864.
##  4 2008-01-07 1816. 1841. 1814. 1831. 267800    1831.
##  5 2008-01-08 1839. 1841. 1819. 1826. 296000    1826.
##  6 2008-01-09 1802. 1844. 1794. 1844. 277200    1844.
##  7 2008-01-10 1848. 1855. 1825. 1825. 315200    1825.
##  8 2008-01-11 1845. 1847. 1776. 1782. 280200    1782.
##  9 2008-01-14 1781  1791. 1754. 1766. 249000    1766.
## 10 2008-01-15 1782. 1782. 1723. 1747. 295200    1747.
## # ... with 2,661 more rows
…
삼성전자 번호는 005930 이군요!

ss <- tq_get("005930.KS")
ss

## # A tibble: 2,671 x 7
##    date        open  high   low close   volume adjusted
##    <date>     <dbl> <dbl> <dbl> <dbl>    <dbl>    <dbl>
##  1 2008-01-02 11180 11200 10840 10880 18047200    0.873
##  2 2008-01-03 10760 11060 10640 10920 19346500    0.876
##  3 2008-01-04 10920 10960 10760 10780 17997350    0.865
##  4 2008-01-07 10360 10480 10340 10380 39787200    0.833
##  5 2008-01-08 10380 10480 10320 10320 24783700    0.828
##  6 2008-01-09 10340 10580 10260 10500 23865450    0.842
##  7 2008-01-10 10440 10580 10320 10320 31551350    0.828
##  8 2008-01-11 10360 10520 10220 10320 23425150    0.828
##  9 2008-01-14 10280 10520 10280 10500 22167000    0.842
## 10 2008-01-15 10660 10820 10420 10640 40283950    0.854
## # ... with 2,661 more rows

날짜를 지정할 수도 있습니다.

ssdate <- tq_get("005930.KS", from="2016-01-01", to="2016-05-05")
ssdate

## # A tibble: 83 x 7
##    date        open  high   low close   volume adjusted
##    <date>     <dbl> <dbl> <dbl> <dbl>    <dbl>    <dbl>
##  1 2016-01-04 25200 25200 24100 24100 15346950    1177.
##  2 2016-01-05 24040 24360 23720 24160 10800100    1180.
##  3 2016-01-06 24160 24160 23360 23500 18337600    1148.
##  4 2016-01-07 23320 23660 23020 23260 14119400    1136.
##  5 2016-01-08 23260 23720 23260 23420 12888150    1144.
##  6 2016-01-11 23120 23320 22920 23040 12063850    1125.
##  7 2016-01-12 22960 23320 22880 22920 10314150    1120.
##  8 2016-01-13 23060 23180 22960 22960  7165800    1122.
##  9 2016-01-14 22620 22840 22620 22760 10451100    1112.
## 10 2016-01-15 22800 23040 22480 22640 10473200    1106.
## # ... with 73 more rows

배당금 정보는 dividends 에서 확인하시면 됩니다.

ssdiv <- tq_get("005930.KS", get = "dividends")
ssdiv

## # A tibble: 24 x 2
##    date       dividends
##    <date>         <dbl>
##  1 2008-06-27       500
##  2 2008-12-29      5000
##  3 2009-06-29       500
##  4 2009-12-29      7500
##  5 2010-06-29      5000
##  6 2010-12-29      5000
##  7 2011-06-29       500
##  8 2011-12-28      5000
##  9 2012-06-28       500
## 10 2012-12-27      7500
## # ... with 14 more rows
야후 파이넨스가 데이터 소스이다 보니 모든 정보가 있다고 보기 어렵니다. 거기다 종목 번호를 일일이 찾는 것도 힘들구요. 이런 문제를 해결하기 위해서 tqk가 시작됬습니다.

tqk 소개 - 한국 주식 데이터 패키지

종목 코드 가져오기

본래 tidyquant 패키지는 symbol(ex> 애플사는 AAPL)를 인자로 주식 데이터를 가져옵니다. 한국 주식은 각 종목별로 코드가 있으며 그것 때문에 코드와 종목명이 매치되있는 데이터를 확인할 수 있어야 합니다. tqk 패키지는 code_get()함수를 통해 진행 가능합니다.

if (!require(remotes)) install.packages("remotes", verbose = F)
if (!require(tqk)) remotes::install_github("mrchypark/tqk", verbose = F)
library(tqk)
code<-code_get()
code

## # A tibble: 2,306 x 3
##    code   name                    category
##    <chr>  <chr>                   <chr>   
##  1 060310 3S                      KOSDAQ  
##  2 095570 AJ네트웍스              KOSPI   
##  3 068400 AJ렌터카                KOSPI   
##  4 006840 AK홀딩스                KOSPI   
##  5 054620 APS홀딩스               KOSDAQ  
##  6 265520 AP시스템                KOSDAQ  
##  7 211270 AP위성                  KOSDAQ  
##  8 152100 ARIRANG 200             ETF     
##  9 222170 ARIRANG S&P한국배당성장 ETF     
## 10 161490 ARIRANG 경기방어주      ETF     
## # ... with 2,296 more rows
…
tqk_get()은 종목 코드로 데이터를 가져오도록 만들었습니다.

ss_prices <- 
  code_get() %>% 
  filter(grepl("^삼성전자$",name)) %>% 
  select(code) %>% 
  tqk_get(from = "2017-01-01")

## [1] "please wait for getting data using internet."
## [1] "close and adjusted are same now."

ss_prices

## # A tibble: 471 x 7
##    date        open  high   low close   volume adjusted
##    <date>     <int> <int> <int> <int>    <dbl>    <int>
##  1 2017-01-02 35980 36240 35880 36100  4650600    36100
##  2 2017-01-03 36280 36620 36020 36480  7357650    36480
##  3 2017-01-04 36500 36520 36100 36160  7971750    36160
##  4 2017-01-05 36060 36060 35540 35560 10967450    35560
##  5 2017-01-06 36180 36440 36040 36200  8880950    36200
##  6 2017-01-09 36600 37500 36560 37220 13194900    37220
##  7 2017-01-10 37280 37400 37080 37240  9099800    37240
##  8 2017-01-11 37520 38560 37420 38280 12018150    38280
##  9 2017-01-12 38000 38800 37980 38800 11669150    38800
## 10 2017-01-12 38000 38800 37980 38800 11669150    38800
## # ... with 461 more rows
…
